^H:\MOTIONDEV\BVHPORDEV\TIDYMIMIC\GLM_TESTQUANTDEV\BVH.CPP
/c /I.\ /ZI /JMC /nologo /W3 /WX- /diagnostics:classic /sdl /Od /D _CRT_SECURE_NO_WARNINGS /D _MBCS /Gm- /EHsc /RTC1 /MDd /GS /fp:precise /permissive- /Zc:wchar_t /Zc:forScope /Zc:inline /Fo"X64\DEBUG\\" /Fd"X64\DEBUG\VC141.PDB" /Gd /TP /FC H:\MOTIONDEV\BVHPORDEV\TIDYMIMIC\GLM_TESTQUANTDEV\BVH.CPP
^H:\MOTIONDEV\BVHPORDEV\TIDYMIMIC\GLM_TESTQUANTDEV\MTEST02.CPP
/c /I.\ /ZI /JMC /nologo /W3 /WX- /diagnostics:classic /sdl /Od /D _CRT_SECURE_NO_WARNINGS /D _MBCS /Gm- /EHsc /RTC1 /MDd /GS /fp:precise /permissive- /Zc:wchar_t /Zc:forScope /Zc:inline /Fo"X64\DEBUG\\" /Fd"X64\DEBUG\VC141.PDB" /Gd /TP /FC H:\MOTIONDEV\BVHPORDEV\TIDYMIMIC\GLM_TESTQUANTDEV\MTEST02.CPP
^H:\DEVBVH\TIDYMIMIC\GLM_TESTQUANTDEV\BVH.CPP
/c /I.\ /ZI /JMC /nologo /W3 /WX- /diagnostics:classic /sdl /Od /D _CRT_SECURE_NO_WARNINGS /D _MBCS /Gm- /EHsc /RTC1 /MDd /GS /fp:precise /permissive- /Zc:wchar_t /Zc:forScope /Zc:inline /Fo"X64\DEBUG\\" /Fd"X64\DEBUG\VC141.PDB" /Gd /TP /FC H:\DEVBVH\TIDYMIMIC\GLM_TESTQUANTDEV\BVH.CPP
^H:\DEVBVH\TIDYMIMIC\GLM_TESTQUANTDEV\MTEST02.CPP
/c /I.\ /ZI /JMC /nologo /W3 /WX- /diagnostics:classic /sdl /Od /D _CRT_SECURE_NO_WARNINGS /D _MBCS /Gm- /EHsc /RTC1 /MDd /GS /fp:precise /permissive- /Zc:wchar_t /Zc:forScope /Zc:inline /Fo"X64\DEBUG\\" /Fd"X64\DEBUG\VC141.PDB" /Gd /TP /FC H:\DEVBVH\TIDYMIMIC\GLM_TESTQUANTDEV\MTEST02.CPP
