 0.74714,-0.00000,-0.66466,-0.00000
 0.97032, 0.00000, 0.24182, 0.00000
 1.00000, 0.00000, 0.00000, 0.00000
 0.89616,-0.00000,-0.44373,-0.00000
 1.00000, 0.00000, 0.00000, 0.00000
 0.78161, 0.00000, 0.62376, 0.00000
 0.98818, 0.00000, 0.15330, 0.00000
 1.00000, 0.00000, 0.00000, 0.00000
 0.98958,-0.00000,-0.14397,-0.00000
 0.99005, 0.00000, 0.14074, 0.00000
 1.00000, 0.00000, 0.00000, 0.00000
 0.99991,-0.00000,-0.01336,-0.00000
 1.00000, 0.00000, 0.00000, 0.00000
 0.99869, 0.00000, 0.05122, 0.00000
 1.00000, 0.00000, 0.00000, 0.00000
 0.99883,-0.00000,-0.04846,-0.00000
 1.00000, 0.00000, 0.00000, 0.00000
