%module DeepMimicCore
 
%{
/* Put header files here or function declarations like below */
#include <vector>
#include <map>

#include "DeepMimicCore.h"
%}
 
%include "std_string.i"
%include "std_vector.i"
%include "std_map.i"

// Instantiate templates used by example
namespace std 
{
   %template(IntVector) vector<int>;
   %template(DoubleVector) vector<double>;
   %template(StringVector) vector<string>;
   %template(MapStringVectorString) map<string, vector<string>>;
   %template(ConstCharVector) vector<const char*>;
}

%rename(at) operator[];
%rename(add) operator+;
%rename(multiply) operator*;
%rename(divide) operator/;
%rename(subtract) operator-;
%rename(lessThan) operator<;
%rename(equal) operator==;
%rename(notEqual) operator!=;
%rename(incrementAdd) operator+=;
%rename(incrementSubtract) operator-=;
%rename(incrementMultiply) operator*=;
%rename(incrementDivide) operator/=;

%include "DeepMimicCore.h"